[
  {
    "TenantId": "875be72c-0b15-4ec8-acab-a4839ce55862",
    "Url": "tstfol01cswus01.nintextest.com",
    "Region": "West US"
  },
  {
    "TenantId": "cf397be4-5b2d-4652-b355-2d00cd11fbd7",
    "Url": "tstapigw01csvjae01.nintextest.com",
    "Region": "Japan East"
  },
  {
    "TenantId": "07308dca-07a6-4259-b376-07f3521744c1",
    "Url": "tstapigw01csvjae01.nintextest.com",
    "Region": "Japan East"
  }
]